HW4
…
hp_token <- hp_data %>% 
  unnest_tokens(word, text, to_lower = TRUE)
head(hp_token$word, 13) #shows the first 10 words in the dataset

##  [1] "president"   "donald"      "trump's"     "merchandise" "to"         
##  [6] "protest"     "the"         "impeachment" "inquiry"     "caught"     
## [11] "the"         "attention"   "of"

hp_token %>% 
  count(word, sort = TRUE)

## # A tibble: 13,567 x 2
##    word      n
##    <chr> <int>
##  1 the   10319
##  2 to     6027
##  3 of     4106
##  4 a      3894
##  5 and    3650
##  6 in     3278
##  7 that   3008
##  8 on     1856
##  9 he     1783
## 10 trump  1728
## #  with 13,557 more rows
…
stop_words

## # A tibble: 1,149 x 2
##    word        lexicon
##    <chr>       <chr>  
##  1 a           SMART  
##  2 a's         SMART  
##  3 able        SMART  
##  4 about       SMART  
##  5 above       SMART  
##  6 according   SMART  
##  7 accordingly SMART  
##  8 across      SMART  
##  9 actually    SMART  
## 10 after       SMART  
## #  with 1,139 more rows
…
hp_token %>% 
  count(word, sort = TRUE)

## # A tibble: 12,934 x 2
##    word            n
##    <chr>       <int>
##  1 trump        1728
##  2 president    1391
##  3 house         958
##  4 impeachment   945
##  5 ukraine       940
##  6 trump's       684
##  7 u.s           512
##  8 white         488
##  9 sondland      466
## 10 call          453
## #  with 12,924 more rows
…
hp_word_counts <- hp_data %>% 
  unnest_tokens(word,text, to_lower = TRUE) %>%
  anti_join(stop_words) %>%
  inner_join(get_sentiments("afinn")) %>%
  count(word, sentiments, sort = TRUE)

## Joining, by = "word"
## Joining, by = "word"

hp_word_counts

## # A tibble: 4,805 x 3
##    word  sentiments     n
##    <chr>      <dbl> <int>
##  1 share         -4    12
##  2 care          27    11
##  3 share         -8    11
##  4 share          4    11
##  5 dumb         -35    10
##  6 legal        -25    10
##  7 legal         -4    10
##  8 share         -5    10
##  9 share         -3    10
## 10 share          3    10
## #  with 4,795 more rows
…
