HW5
…
## A LDA_VEM topic model with 18 topics.

topics <- tidy(hp_lda, matrix="beta")

top_terms <- topics %>% 
  group_by(topic) %>% #groups by topic
  top_n(10, beta) %>% #takes the words with the top 10 beta scores
  ungroup() #ungroups the topic

top_terms

## # A tibble: 182 x 3
##    topic term          beta
##    <int> <chr>        <dbl>
##  1     6 biden      0.0134 
##  2     1 democratic 0.00795
##  3     3 democratic 0.00852
##  4     5 donald     0.00702
##  5     6 donald     0.00680
##  6    12 donald     0.00760
##  7    18 donald     0.00471
##  8    11 election   0.00935
##  9     4 house      0.0185 
## 10     5 house      0.00693
## #  with 172 more rows
…
topics_doc <- tidy(hp_lda, matrix="gamma") 

topics_wide <- topics_doc %>%
  pivot_wider(names_from = topic,
              values_from = gamma)
#View(topics_wide)
topics_wide

## # A tibble: 343 x 19
##    document     `1`     `2`     `3`     `4`     `5`     `6`     `7`     `8`
##    <chr>      <dbl>   <dbl>   <dbl>   <dbl>   <dbl>   <dbl>   <dbl>   <dbl>
##  1 1435807 9.25e-5 8.80e-1 9.25e-5 9.25e-5 9.25e-5 9.25e-5 9.25e-5 9.25e-5
##  2 1435984 1.15e-4 1.15e-4 1.15e-4 1.15e-4 1.15e-4 1.15e-4 8.91e-1 1.15e-4
##  3 1436226 9.44e-5 9.44e-5 9.44e-5 9.44e-5 9.44e-5 9.44e-5 9.44e-5 2.12e-1
##  4 1436425 1.03e-4 1.03e-4 1.03e-4 1.03e-4 1.03e-4 1.03e-4 1.03e-4 1.03e-4
##  5 1436525 7.80e-5 7.80e-5 7.80e-5 7.80e-5 7.80e-5 7.80e-5 7.80e-5 7.80e-5
##  6 1436565 3.66e-5 3.66e-5 3.66e-5 9.99e-1 3.66e-5 3.66e-5 3.66e-5 3.66e-5
##  7 1436604 6.65e-5 6.65e-5 6.65e-5 6.65e-5 6.65e-5 6.65e-5 6.65e-5 6.65e-5
##  8 1436618 2.63e-5 2.63e-5 2.63e-5 2.63e-5 2.63e-5 2.63e-5 2.63e-5 1.97e-1
##  9 1436643 2.08e-4 2.08e-4 2.08e-4 2.08e-4 2.08e-4 2.08e-4 2.08e-4 2.08e-4
## 10 1436674 6.88e-3 4.40e-5 4.40e-5 4.40e-5 4.40e-5 4.40e-5 4.40e-5 4.40e-5
## #  with 333 more rows, and 10 more variables: `9` <dbl>, `10` <dbl>,
## #   `11` <dbl>, `12` <dbl>, `13` <dbl>, `14` <dbl>, `15` <dbl>, `16` <dbl>,
## #   `17` <dbl>, `18` <dbl>
…
